Missing Migrant Project
…
Figure 9: Comparison men, women and children incidents by year

Figure 9 exhibits the trend over the years and the differences among the number of male, female, and children occurrences. Male migrants who perished or went missing rose conspicuously from 2014 to 2018. Similarly, the number of female incidents tended to increase until 2019. Still, the number of men was significantly higher than women and children.

2.4 Causes of death

Having checked the distribution of incidents throughout the location, we now find the most common causes of deaths. First, we would like to check the unique values in this column.

# Investigate on the cause of death column
unique(df[c("cause_of_death")])

## # A tibble: 426 x 1
##    cause_of_death                   
##    <chr>                            
##  1 Presumed drowning                
##  2 Drowning                         
##  3 Unknown (presumed sickness)      
##  4 Presumed hyperthermia/dehydration
##  5 Fell from border wall            
##  6 unknown-skeletal remains         
##  7 Unknown (skeletal remains)       
##  8 Exposure, heat-related stress    
##  9 Vehicle Accident                 
## 10 Sickness                         
## # ... with 416 more rows
…
